info face="Microsoft JhengHei" size=-19 bold=1 italic=0 charset="" unicode=1 stretchH=100 smooth=1 aa=1 padding=0,0,0,0 spacing=1,1 outline=0
common lineHeight=24 base=19 scaleW=512 scaleH=512 pages=1 packed=0 alphaChnl=0 redChnl=4 greenChnl=4 blueChnl=4
page id=0 file="CHANIESS_TCC_INFO_0.png"
chars count=526
char id=32   x=140   y=475   width=5     height=24    xoffset=0     yoffset=0     xadvance=5     page=0  chnl=15
char id=33   x=478   y=450   width=9     height=24    xoffset=0     yoffset=0     xadvance=9     page=0  chnl=15
char id=37   x=439   y=425   width=17    height=24    xoffset=0     yoffset=0     xadvance=17    page=0  chnl=15
char id=38   x=457   y=425   width=17    height=24    xoffset=0     yoffset=0     xadvance=17    page=0  chnl=15
char id=39   x=116   y=475   width=5     height=24    xoffset=0     yoffset=0     xadvance=5     page=0  chnl=15
char id=40   x=18    y=475   width=8     height=24    xoffset=0     yoffset=0     xadvance=8     page=0  chnl=15
char id=41   x=62    y=475   width=7     height=24    xoffset=0     yoffset=0     xadvance=7     page=0  chnl=15
char id=44   x=110   y=475   width=5     height=24    xoffset=0     yoffset=0     xadvance=5     page=0  chnl=15
char id=45   x=0     y=475   width=8     height=24    xoffset=0     yoffset=0     xadvance=8     page=0  chnl=15
char id=46   x=92    y=475   width=5     height=24    xoffset=0     yoffset=0     xadvance=5     page=0  chnl=15
char id=47   x=500   y=400   width=10    height=24    xoffset=0     yoffset=0     xadvance=10    page=0  chnl=15
char id=48   x=500   y=25    width=11    height=24    xoffset=0     yoffset=0     xadvance=11    page=0  chnl=15
char id=49   x=500   y=325   width=11    height=24    xoffset=0     yoffset=0     xadvance=11    page=0  chnl=15
char id=50   x=500   y=250   width=11    height=24    xoffset=0     yoffset=0     xadvance=11    page=0  chnl=15
char id=51   x=500   y=350   width=11    height=24    xoffset=0     yoffset=0     xadvance=11    page=0  chnl=15
char id=52   x=294   y=450   width=12    height=24    xoffset=0     yoffset=0     xadvance=12    page=0  chnl=15
char id=53   x=500   y=300   width=11    height=24    xoffset=0     yoffset=0     xadvance=11    page=0  chnl=15
char id=54   x=500   y=275   width=11    height=24    xoffset=0     yoffset=0     xadvance=11    page=0  chnl=15
char id=55   x=500   y=175   width=11    height=24    xoffset=0     yoffset=0     xadvance=11    page=0  chnl=15
char id=56   x=500   y=150   width=11    height=24    xoffset=0     yoffset=0     xadvance=11    page=0  chnl=15
char id=57   x=500   y=100   width=11    height=24    xoffset=0     yoffset=0     xadvance=11    page=0  chnl=15
char id=58   x=128   y=475   width=5     height=24    xoffset=0     yoffset=0     xadvance=5     page=0  chnl=15
char id=59   x=122   y=475   width=5     height=24    xoffset=0     yoffset=0     xadvance=5     page=0  chnl=15
char id=63   x=488   y=450   width=9     height=24    xoffset=0     yoffset=0     xadvance=9     page=0  chnl=15
char id=64   x=23    y=0     width=20    height=24    xoffset=0     yoffset=0     xadvance=20    page=0  chnl=15
char id=65   x=493   y=425   width=16    height=24    xoffset=0     yoffset=0     xadvance=16    page=0  chnl=15
char id=66   x=307   y=450   width=12    height=24    xoffset=0     yoffset=0     xadvance=12    page=0  chnl=15
char id=67   x=189   y=450   width=13    height=24    xoffset=0     yoffset=0     xadvance=13    page=0  chnl=15
char id=68   x=99    y=450   width=15    height=24    xoffset=0     yoffset=0     xadvance=15    page=0  chnl=15
char id=69   x=500   y=225   width=11    height=24    xoffset=0     yoffset=0     xadvance=11    page=0  chnl=15
char id=70   x=446   y=450   width=10    height=24    xoffset=0     yoffset=0     xadvance=10    page=0  chnl=15
char id=71   x=115   y=450   width=14    height=24    xoffset=0     yoffset=0     xadvance=14    page=0  chnl=15
char id=72   x=51    y=450   width=15    height=24    xoffset=0     yoffset=0     xadvance=15    page=0  chnl=15
char id=73   x=85    y=475   width=6     height=24    xoffset=0     yoffset=0     xadvance=6     page=0  chnl=15
char id=74   x=27    y=475   width=8     height=24    xoffset=0     yoffset=0     xadvance=8     page=0  chnl=15
char id=75   x=175   y=450   width=13    height=24    xoffset=0     yoffset=0     xadvance=13    page=0  chnl=15
char id=76   x=435   y=450   width=10    height=24    xoffset=0     yoffset=0     xadvance=10    page=0  chnl=15
char id=77   x=260   y=25    width=19    height=24    xoffset=0     yoffset=0     xadvance=19    page=0  chnl=15
char id=78   x=34    y=450   width=16    height=24    xoffset=0     yoffset=0     xadvance=16    page=0  chnl=15
char id=79   x=17    y=450   width=16    height=24    xoffset=0     yoffset=0     xadvance=16    page=0  chnl=15
char id=80   x=333   y=450   width=12    height=24    xoffset=0     yoffset=0     xadvance=12    page=0  chnl=15
char id=81   x=0     y=450   width=16    height=24    xoffset=0     yoffset=0     xadvance=16    page=0  chnl=15
char id=82   x=130   y=450   width=14    height=24    xoffset=0     yoffset=0     xadvance=14    page=0  chnl=15
char id=83   x=500   y=75    width=11    height=24    xoffset=0     yoffset=0     xadvance=11    page=0  chnl=15
char id=84   x=500   y=200   width=11    height=24    xoffset=0     yoffset=0     xadvance=11    page=0  chnl=15
char id=85   x=160   y=450   width=14    height=24    xoffset=0     yoffset=0     xadvance=14    page=0  chnl=15
char id=86   x=83    y=450   width=15    height=24    xoffset=0     yoffset=0     xadvance=15    page=0  chnl=15
char id=87   x=0     y=0     width=22    height=24    xoffset=0     yoffset=0     xadvance=22    page=0  chnl=15
char id=88   x=67    y=450   width=15    height=24    xoffset=0     yoffset=0     xadvance=15    page=0  chnl=15
char id=89   x=145   y=450   width=14    height=24    xoffset=0     yoffset=0     xadvance=14    page=0  chnl=15
char id=90   x=255   y=450   width=12    height=24    xoffset=0     yoffset=0     xadvance=12    page=0  chnl=15
char id=91   x=504   y=0     width=7     height=24    xoffset=0     yoffset=0     xadvance=7     page=0  chnl=15
char id=92   x=424   y=450   width=10    height=24    xoffset=0     yoffset=0     xadvance=10    page=0  chnl=15
char id=93   x=54    y=475   width=7     height=24    xoffset=0     yoffset=0     xadvance=7     page=0  chnl=15
char id=95   x=500   y=375   width=10    height=24    xoffset=0     yoffset=0     xadvance=10    page=0  chnl=15
char id=96   x=78    y=475   width=6     height=24    xoffset=0     yoffset=0     xadvance=6     page=0  chnl=15
char id=97   x=500   y=50    width=11    height=24    xoffset=0     yoffset=0     xadvance=11    page=0  chnl=15
char id=98   x=216   y=450   width=12    height=24    xoffset=0     yoffset=0     xadvance=12    page=0  chnl=15
char id=99   x=457   y=450   width=10    height=24    xoffset=0     yoffset=0     xadvance=10    page=0  chnl=15
char id=100  x=346   y=450   width=12    height=24    xoffset=0     yoffset=0     xadvance=12    page=0  chnl=15
char id=101  x=500   y=125   width=11    height=24    xoffset=0     yoffset=0     xadvance=11    page=0  chnl=15
char id=102  x=36    y=475   width=8     height=24    xoffset=0     yoffset=0     xadvance=8     page=0  chnl=15
char id=103  x=359   y=450   width=12    height=24    xoffset=0     yoffset=0     xadvance=12    page=0  chnl=15
char id=104  x=372   y=450   width=12    height=24    xoffset=0     yoffset=0     xadvance=12    page=0  chnl=15
char id=105  x=98    y=475   width=5     height=24    xoffset=0     yoffset=0     xadvance=5     page=0  chnl=15
char id=106  x=45    y=475   width=8     height=24    xoffset=0     yoffset=0     xadvance=8     page=0  chnl=15
char id=107  x=385   y=450   width=12    height=24    xoffset=0     yoffset=0     xadvance=12    page=0  chnl=15
char id=108  x=104   y=475   width=5     height=24    xoffset=0     yoffset=0     xadvance=5     page=0  chnl=15
char id=109  x=420   y=425   width=18    height=24    xoffset=0     yoffset=0     xadvance=18    page=0  chnl=15
char id=110  x=398   y=450   width=12    height=24    xoffset=0     yoffset=0     xadvance=12    page=0  chnl=15
char id=111  x=411   y=450   width=12    height=24    xoffset=0     yoffset=0     xadvance=12    page=0  chnl=15
char id=112  x=320   y=450   width=12    height=24    xoffset=0     yoffset=0     xadvance=12    page=0  chnl=15
char id=113  x=203   y=450   width=12    height=24    xoffset=0     yoffset=0     xadvance=12    page=0  chnl=15
char id=114  x=9     y=475   width=8     height=24    xoffset=0     yoffset=0     xadvance=8     page=0  chnl=15
char id=115  x=468   y=450   width=9     height=24    xoffset=0     yoffset=0     xadvance=9     page=0  chnl=15
char id=116  x=70    y=475   width=7     height=24    xoffset=0     yoffset=0     xadvance=7     page=0  chnl=15
char id=117  x=229   y=450   width=12    height=24    xoffset=0     yoffset=0     xadvance=12    page=0  chnl=15
char id=118  x=242   y=450   width=12    height=24    xoffset=0     yoffset=0     xadvance=12    page=0  chnl=15
char id=119  x=475   y=425   width=17    height=24    xoffset=0     yoffset=0     xadvance=17    page=0  chnl=15
char id=120  x=268   y=450   width=12    height=24    xoffset=0     yoffset=0     xadvance=12    page=0  chnl=15
char id=121  x=281   y=450   width=12    height=24    xoffset=0     yoffset=0     xadvance=12    page=0  chnl=15
char id=122  x=498   y=450   width=9     height=24    xoffset=0     yoffset=0     xadvance=9     page=0  chnl=15
char id=183  x=134   y=475   width=5     height=24    xoffset=0     yoffset=0     xadvance=5     page=0  chnl=15
char id=8216 x=160   y=75    width=19    height=24    xoffset=0     yoffset=0     xadvance=19    page=0  chnl=15
char id=8217 x=180   y=75    width=19    height=24    xoffset=0     yoffset=0     xadvance=19    page=0  chnl=15
char id=12290 x=200   y=75    width=19    height=24    xoffset=0     yoffset=0     xadvance=19    page=0  chnl=15
char id=19968 x=220   y=75    width=19    height=24    xoffset=0     yoffset=0     xadvance=19    page=0  chnl=15
char id=19977 x=240   y=75    width=19    height=24    xoffset=0     yoffset=0     xadvance=19    page=0  chnl=15
char id=19978 x=260   y=75    width=19    height=24    xoffset=0     yoffset=0     xadvance=19    page=0  chnl=15
char id=19979 x=280   y=75    width=19    height=24    xoffset=0     yoffset=0     xadvance=19    page=0  chnl=15
char id=19981 x=300   y=75    width=19    height=24    xoffset=0     yoffset=0     xadvance=19    page=0  chnl=15
char id=19987 x=320   y=75    width=19    height=24    xoffset=0     yoffset=0     xadvance=19    page=0  chnl=15
char id=20006 x=340   y=75    width=19    height=24    xoffset=0     yoffset=0     xadvance=19    page=0  chnl=15
char id=20013 x=360   y=75    width=19    height=24    xoffset=0     yoffset=0     xadvance=19    page=0  chnl=15
char id=20027 x=380   y=75    width=19    height=24    xoffset=0     yoffset=0     xadvance=19    page=0  chnl=15
char id=20080 x=400   y=75    width=19    height=24    xoffset=0     yoffset=0     xadvance=19    page=0  chnl=15
char id=20102 x=420   y=75    width=19    height=24    xoffset=0     yoffset=0     xadvance=19    page=0  chnl=15
char id=20142 x=440   y=75    width=19    height=24    xoffset=0     yoffset=0     xadvance=19    page=0  chnl=15
char id=20154 x=460   y=75    width=19    height=24    xoffset=0     yoffset=0     xadvance=19    page=0  chnl=15
char id=20171 x=480   y=75    width=19    height=24    xoffset=0     yoffset=0     xadvance=19    page=0  chnl=15
char id=20197 x=0     y=100   width=19    height=24    xoffset=0     yoffset=0     xadvance=19    page=0  chnl=15
char id=20240 x=20    y=100   width=19    height=24    xoffset=0     yoffset=0     xadvance=19    page=0  chnl=15
char id=20294 x=40    y=100   width=19    height=24    xoffset=0     yoffset=0     xadvance=19    page=0  chnl=15
char id=20301 x=60    y=100   width=19    height=24    xoffset=0     yoffset=0     xadvance=19    page=0  chnl=15
char id=20302 x=80    y=100   width=19    height=24    xoffset=0     yoffset=0     xadvance=19    page=0  chnl=15
char id=20313 x=100   y=100   width=19    height=24    xoffset=0     yoffset=0     xadvance=19    page=0  chnl=15
char id=20316 x=120   y=100   width=19    height=24    xoffset=0     yoffset=0     xadvance=19    page=0  chnl=15
char id=20351 x=140   y=100   width=19    height=24    xoffset=0     yoffset=0     xadvance=19    page=0  chnl=15
char id=20358 x=160   y=100   width=19    height=24    xoffset=0     yoffset=0     xadvance=19    page=0  chnl=15
char id=20445 x=180   y=100   width=19    height=24    xoffset=0     yoffset=0     xadvance=19    page=0  chnl=15
char id=20449 x=200   y=100   width=19    height=24    xoffset=0     yoffset=0     xadvance=19    page=0  chnl=15
char id=20462 x=220   y=100   width=19    height=24    xoffset=0     yoffset=0     xadvance=19    page=0  chnl=15
char id=20491 x=240   y=100   width=19    height=24    xoffset=0     yoffset=0     xadvance=19    page=0  chnl=15
char id=20498 x=260   y=100   width=19    height=24    xoffset=0     yoffset=0     xadvance=19    page=0  chnl=15
char id=20505 x=280   y=100   width=19    height=24    xoffset=0     yoffset=0     xadvance=19    page=0  chnl=15
char id=20572 x=300   y=100   width=19    height=24    xoffset=0     yoffset=0     xadvance=19    page=0  chnl=15
char id=20633 x=320   y=100   width=19    height=24    xoffset=0     yoffset=0     xadvance=19    page=0  chnl=15
char id=20687 x=340   y=100   width=19    height=24    xoffset=0     yoffset=0     xadvance=19    page=0  chnl=15
char id=20729 x=360   y=100   width=19    height=24    xoffset=0     yoffset=0     xadvance=19    page=0  chnl=15
char id=20778 x=380   y=100   width=19    height=24    xoffset=0     yoffset=0     xadvance=19    page=0  chnl=15
char id=20808 x=400   y=100   width=19    height=24    xoffset=0     yoffset=0     xadvance=19    page=0  chnl=15
char id=20809 x=420   y=100   width=19    height=24    xoffset=0     yoffset=0     xadvance=19    page=0  chnl=15
char id=20837 x=440   y=100   width=19    height=24    xoffset=0     yoffset=0     xadvance=19    page=0  chnl=15
char id=20839 x=460   y=100   width=19    height=24    xoffset=0     yoffset=0     xadvance=19    page=0  chnl=15
char id=20840 x=480   y=100   width=19    height=24    xoffset=0     yoffset=0     xadvance=19    page=0  chnl=15
char id=20849 x=0     y=125   width=19    height=24    xoffset=0     yoffset=0     xadvance=19    page=0  chnl=15
char id=20877 x=20    y=125   width=19    height=24    xoffset=0     yoffset=0     xadvance=19    page=0  chnl=15
char id=20896 x=40    y=125   width=19    height=24    xoffset=0     yoffset=0     xadvance=19    page=0  chnl=15
char id=20934 x=60    y=125   width=19    height=24    xoffset=0     yoffset=0     xadvance=19    page=0  chnl=15
char id=20986 x=80    y=125   width=19    height=24    xoffset=0     yoffset=0     xadvance=19    page=0  chnl=15
char id=20998 x=44    y=0     width=19    height=24    xoffset=0     yoffset=0     xadvance=19    page=0  chnl=15
char id=21021 x=120   y=125   width=19    height=24    xoffset=0     yoffset=0     xadvance=19    page=0  chnl=15
char id=21029 x=140   y=125   width=19    height=24    xoffset=0     yoffset=0     xadvance=19    page=0  chnl=15
char id=21033 x=160   y=125   width=19    height=24    xoffset=0     yoffset=0     xadvance=19    page=0  chnl=15
char id=21034 x=180   y=125   width=19    height=24    xoffset=0     yoffset=0     xadvance=19    page=0  chnl=15
char id=21040 x=200   y=125   width=19    height=24    xoffset=0     yoffset=0     xadvance=19    page=0  chnl=15
char id=21046 x=220   y=125   width=19    height=24    xoffset=0     yoffset=0     xadvance=19    page=0  chnl=15
char id=21069 x=240   y=125   width=19    height=24    xoffset=0     yoffset=0     xadvance=19    page=0  chnl=15
char id=21097 x=260   y=125   width=19    height=24    xoffset=0     yoffset=0     xadvance=19    page=0  chnl=15
char id=21151 x=280   y=125   width=19    height=24    xoffset=0     yoffset=0     xadvance=19    page=0  chnl=15
char id=21152 x=300   y=125   width=19    height=24    xoffset=0     yoffset=0     xadvance=19    page=0  chnl=15
char id=21205 x=320   y=125   width=19    height=24    xoffset=0     yoffset=0     xadvance=19    page=0  chnl=15
char id=21213 x=340   y=125   width=19    height=24    xoffset=0     yoffset=0     xadvance=19    page=0  chnl=15
char id=21237 x=360   y=125   width=19    height=24    xoffset=0     yoffset=0     xadvance=19    page=0  chnl=15
char id=21253 x=380   y=125   width=19    height=24    xoffset=0     yoffset=0     xadvance=19    page=0  chnl=15
char id=21270 x=400   y=125   width=19    height=24    xoffset=0     yoffset=0     xadvance=19    page=0  chnl=15
char id=21319 x=420   y=125   width=19    height=24    xoffset=0     yoffset=0     xadvance=19    page=0  chnl=15
char id=21363 x=440   y=125   width=19    height=24    xoffset=0     yoffset=0     xadvance=19    page=0  chnl=15
char id=21443 x=460   y=125   width=19    height=24    xoffset=0     yoffset=0     xadvance=19    page=0  chnl=15
char id=21453 x=480   y=125   width=19    height=24    xoffset=0     yoffset=0     xadvance=19    page=0  chnl=15
char id=21487 x=0     y=150   width=19    height=24    xoffset=0     yoffset=0     xadvance=19    page=0  chnl=15
char id=21488 x=20    y=150   width=19    height=24    xoffset=0     yoffset=0     xadvance=19    page=0  chnl=15
char id=21490 x=40    y=150   width=19    height=24    xoffset=0     yoffset=0     xadvance=19    page=0  chnl=15
char id=21491 x=60    y=150   width=19    height=24    xoffset=0     yoffset=0     xadvance=19    page=0  chnl=15
char id=21508 x=80    y=150   width=19    height=24    xoffset=0     yoffset=0     xadvance=19    page=0  chnl=15
char id=21512 x=100   y=150   width=19    height=24    xoffset=0     yoffset=0     xadvance=19    page=0  chnl=15
char id=21516 x=120   y=150   width=19    height=24    xoffset=0     yoffset=0     xadvance=19    page=0  chnl=15
char id=21517 x=140   y=150   width=19    height=24    xoffset=0     yoffset=0     xadvance=19    page=0  chnl=15
char id=21518 x=160   y=150   width=19    height=24    xoffset=0     yoffset=0     xadvance=19    page=0  chnl=15
char id=21521 x=180   y=150   width=19    height=24    xoffset=0     yoffset=0     xadvance=19    page=0  chnl=15
char id=21542 x=200   y=150   width=19    height=24    xoffset=0     yoffset=0     xadvance=19    page=0  chnl=15
char id=21543 x=220   y=150   width=19    height=24    xoffset=0     yoffset=0     xadvance=19    page=0  chnl=15
char id=21547 x=240   y=150   width=19    height=24    xoffset=0     yoffset=0     xadvance=19    page=0  chnl=15
char id=21578 x=260   y=150   width=19    height=24    xoffset=0     yoffset=0     xadvance=19    page=0  chnl=15
char id=21608 x=280   y=150   width=19    height=24    xoffset=0     yoffset=0     xadvance=19    page=0  chnl=15
char id=21644 x=300   y=150   width=19    height=24    xoffset=0     yoffset=0     xadvance=19    page=0  chnl=15
char id=21697 x=320   y=150   width=19    height=24    xoffset=0     yoffset=0     xadvance=19    page=0  chnl=15
char id=21807 x=340   y=150   width=19    height=24    xoffset=0     yoffset=0     xadvance=19    page=0  chnl=15
char id=21830 x=360   y=150   width=19    height=24    xoffset=0     yoffset=0     xadvance=19    page=0  chnl=15
char id=21839 x=380   y=150   width=19    height=24    xoffset=0     yoffset=0     xadvance=19    page=0  chnl=15
char id=21855 x=400   y=150   width=19    height=24    xoffset=0     yoffset=0     xadvance=19    page=0  chnl=15
char id=21916 x=420   y=150   width=19    height=24    xoffset=0     yoffset=0     xadvance=19    page=0  chnl=15
char id=21934 x=440   y=150   width=19    height=24    xoffset=0     yoffset=0     xadvance=19    page=0  chnl=15
char id=21966 x=460   y=150   width=19    height=24    xoffset=0     yoffset=0     xadvance=19    page=0  chnl=15
char id=22039 x=480   y=150   width=19    height=24    xoffset=0     yoffset=0     xadvance=19    page=0  chnl=15
char id=22120 x=0     y=175   width=19    height=24    xoffset=0     yoffset=0     xadvance=19    page=0  chnl=15
char id=22238 x=20    y=175   width=19    height=24    xoffset=0     yoffset=0     xadvance=19    page=0  chnl=15
char id=22280 x=40    y=175   width=19    height=24    xoffset=0     yoffset=0     xadvance=19    page=0  chnl=15
char id=22285 x=60    y=175   width=19    height=24    xoffset=0     yoffset=0     xadvance=19    page=0  chnl=15
char id=22294 x=80    y=175   width=19    height=24    xoffset=0     yoffset=0     xadvance=19    page=0  chnl=15
char id=22312 x=100   y=175   width=19    height=24    xoffset=0     yoffset=0     xadvance=19    page=0  chnl=15
char id=22402 x=120   y=175   width=19    height=24    xoffset=0     yoffset=0     xadvance=19    page=0  chnl=15
char id=22411 x=140   y=175   width=19    height=24    xoffset=0     yoffset=0     xadvance=19    page=0  chnl=15
char id=22478 x=160   y=175   width=19    height=24    xoffset=0     yoffset=0     xadvance=19    page=0  chnl=15
char id=22580 x=180   y=175   width=19    height=24    xoffset=0     yoffset=0     xadvance=19    page=0  chnl=15
char id=22602 x=200   y=175   width=19    height=24    xoffset=0     yoffset=0     xadvance=19    page=0  chnl=15
char id=22810 x=220   y=175   width=19    height=24    xoffset=0     yoffset=0     xadvance=19    page=0  chnl=15
char id=22818 x=240   y=175   width=19    height=24    xoffset=0     yoffset=0     xadvance=19    page=0  chnl=15
char id=22823 x=260   y=175   width=19    height=24    xoffset=0     yoffset=0     xadvance=19    page=0  chnl=15
char id=22833 x=280   y=175   width=19    height=24    xoffset=0     yoffset=0     xadvance=19    page=0  chnl=15
char id=22871 x=300   y=175   width=19    height=24    xoffset=0     yoffset=0     xadvance=19    page=0  chnl=15
char id=22909 x=320   y=175   width=19    height=24    xoffset=0     yoffset=0     xadvance=19    page=0  chnl=15
char id=22914 x=340   y=175   width=19    height=24    xoffset=0     yoffset=0     xadvance=19    page=0  chnl=15
char id=22987 x=360   y=175   width=19    height=24    xoffset=0     yoffset=0     xadvance=19    page=0  chnl=15
char id=22995 x=380   y=175   width=19    height=24    xoffset=0     yoffset=0     xadvance=19    page=0  chnl=15
char id=23376 x=400   y=175   width=19    height=24    xoffset=0     yoffset=0     xadvance=19    page=0  chnl=15
char id=23384 x=420   y=175   width=19    height=24    xoffset=0     yoffset=0     xadvance=19    page=0  chnl=15
char id=23436 x=440   y=175   width=19    height=24    xoffset=0     yoffset=0     xadvance=19    page=0  chnl=15
char id=23450 x=460   y=175   width=19    height=24    xoffset=0     yoffset=0     xadvance=19    page=0  chnl=15
char id=23460 x=480   y=175   width=19    height=24    xoffset=0     yoffset=0     xadvance=19    page=0  chnl=15
char id=23478 x=0     y=200   width=19    height=24    xoffset=0     yoffset=0     xadvance=19    page=0  chnl=15
char id=23481 x=20    y=200   width=19    height=24    xoffset=0     yoffset=0     xadvance=19    page=0  chnl=15
char id=23526 x=40    y=200   width=19    height=24    xoffset=0     yoffset=0     xadvance=19    page=0  chnl=15
char id=23556 x=60    y=200   width=19    height=24    xoffset=0     yoffset=0     xadvance=19    page=0  chnl=15
char id=23560 x=80    y=200   width=19    height=24    xoffset=0     yoffset=0     xadvance=19    page=0  chnl=15
char id=23565 x=100   y=200   width=19    height=24    xoffset=0     yoffset=0     xadvance=19    page=0  chnl=15
char id=23566 x=120   y=200   width=19    height=24    xoffset=0     yoffset=0     xadvance=19    page=0  chnl=15
char id=23567 x=140   y=200   width=19    height=24    xoffset=0     yoffset=0     xadvance=19    page=0  chnl=15
char id=23631 x=160   y=200   width=19    height=24    xoffset=0     yoffset=0     xadvance=19    page=0  chnl=15
char id=23637 x=180   y=200   width=19    height=24    xoffset=0     yoffset=0     xadvance=19    page=0  chnl=15
char id=24038 x=200   y=200   width=19    height=24    xoffset=0     yoffset=0     xadvance=19    page=0  chnl=15
char id=24050 x=220   y=200   width=19    height=24    xoffset=0     yoffset=0     xadvance=19    page=0  chnl=15
char id=24118 x=240   y=200   width=19    height=24    xoffset=0     yoffset=0     xadvance=19    page=0  chnl=15
char id=24120 x=260   y=200   width=19    height=24    xoffset=0     yoffset=0     xadvance=19    page=0  chnl=15
char id=24128 x=280   y=200   width=19    height=24    xoffset=0     yoffset=0     xadvance=19    page=0  chnl=15
char id=24179 x=300   y=200   width=19    height=24    xoffset=0     yoffset=0     xadvance=19    page=0  chnl=15
char id=24187 x=320   y=200   width=19    height=24    xoffset=0     yoffset=0     xadvance=19    page=0  chnl=15
char id=24207 x=340   y=200   width=19    height=24    xoffset=0     yoffset=0     xadvance=19    page=0  chnl=15
char id=24215 x=360   y=200   width=19    height=24    xoffset=0     yoffset=0     xadvance=19    page=0  chnl=15
char id=24230 x=380   y=200   width=19    height=24    xoffset=0     yoffset=0     xadvance=19    page=0  chnl=15
char id=24291 x=400   y=200   width=19    height=24    xoffset=0     yoffset=0     xadvance=19    page=0  chnl=15
char id=24307 x=420   y=200   width=19    height=24    xoffset=0     yoffset=0     xadvance=19    page=0  chnl=15
char id=24335 x=440   y=200   width=19    height=24    xoffset=0     yoffset=0     xadvance=19    page=0  chnl=15
char id=24433 x=460   y=200   width=19    height=24    xoffset=0     yoffset=0     xadvance=19    page=0  chnl=15
char id=24453 x=480   y=200   width=19    height=24    xoffset=0     yoffset=0     xadvance=19    page=0  chnl=15
char id=24460 x=0     y=225   width=19    height=24    xoffset=0     yoffset=0     xadvance=19    page=0  chnl=15
char id=24471 x=20    y=225   width=19    height=24    xoffset=0     yoffset=0     xadvance=19    page=0  chnl=15
char id=24489 x=40    y=225   width=19    height=24    xoffset=0     yoffset=0     xadvance=19    page=0  chnl=15
char id=24555 x=60    y=225   width=19    height=24    xoffset=0     yoffset=0     xadvance=19    page=0  chnl=15
char id=24685 x=80    y=225   width=19    height=24    xoffset=0     yoffset=0     xadvance=19    page=0  chnl=15
char id=24687 x=100   y=225   width=19    height=24    xoffset=0     yoffset=0     xadvance=19    page=0  chnl=15
char id=24744 x=120   y=225   width=19    height=24    xoffset=0     yoffset=0     xadvance=19    page=0  chnl=15
char id=24800 x=140   y=225   width=19    height=24    xoffset=0     yoffset=0     xadvance=19    page=0  chnl=15
char id=24819 x=160   y=225   width=19    height=24    xoffset=0     yoffset=0     xadvance=19    page=0  chnl=15
char id=24863 x=180   y=225   width=19    height=24    xoffset=0     yoffset=0     xadvance=19    page=0  chnl=15
char id=24907 x=200   y=225   width=19    height=24    xoffset=0     yoffset=0     xadvance=19    page=0  chnl=15
char id=24930 x=220   y=225   width=19    height=24    xoffset=0     yoffset=0     xadvance=19    page=0  chnl=15
char id=25033 x=240   y=225   width=19    height=24    xoffset=0     yoffset=0     xadvance=19    page=0  chnl=15
char id=25104 x=260   y=225   width=19    height=24    xoffset=0     yoffset=0     xadvance=19    page=0  chnl=15
char id=25110 x=280   y=225   width=19    height=24    xoffset=0     yoffset=0     xadvance=19    page=0  chnl=15
char id=25136 x=300   y=225   width=19    height=24    xoffset=0     yoffset=0     xadvance=19    page=0  chnl=15
char id=25138 x=320   y=225   width=19    height=24    xoffset=0     yoffset=0     xadvance=19    page=0  chnl=15
char id=25151 x=340   y=225   width=19    height=24    xoffset=0     yoffset=0     xadvance=19    page=0  chnl=15
char id=25152 x=360   y=225   width=19    height=24    xoffset=0     yoffset=0     xadvance=19    page=0  chnl=15
char id=25163 x=380   y=225   width=19    height=24    xoffset=0     yoffset=0     xadvance=19    page=0  chnl=15
char id=25165 x=400   y=225   width=19    height=24    xoffset=0     yoffset=0     xadvance=19    page=0  chnl=15
char id=25171 x=420   y=225   width=19    height=24    xoffset=0     yoffset=0     xadvance=19    page=0  chnl=15
char id=25216 x=440   y=225   width=19    height=24    xoffset=0     yoffset=0     xadvance=19    page=0  chnl=15
char id=25226 x=460   y=225   width=19    height=24    xoffset=0     yoffset=0     xadvance=19    page=0  chnl=15
char id=25351 x=480   y=225   width=19    height=24    xoffset=0     yoffset=0     xadvance=19    page=0  chnl=15
char id=25353 x=0     y=250   width=19    height=24    xoffset=0     yoffset=0     xadvance=19    page=0  chnl=15
char id=25361 x=20    y=250   width=19    height=24    xoffset=0     yoffset=0     xadvance=19    page=0  chnl=15
char id=25490 x=40    y=250   width=19    height=24    xoffset=0     yoffset=0     xadvance=19    page=0  chnl=15
char id=25509 x=60    y=250   width=19    height=24    xoffset=0     yoffset=0     xadvance=19    page=0  chnl=15
char id=25511 x=80    y=250   width=19    height=24    xoffset=0     yoffset=0     xadvance=19    page=0  chnl=15
char id=25512 x=100   y=250   width=19    height=24    xoffset=0     yoffset=0     xadvance=19    page=0  chnl=15
char id=25552 x=120   y=250   width=19    height=24    xoffset=0     yoffset=0     xadvance=19    page=0  chnl=15
char id=25554 x=140   y=250   width=19    height=24    xoffset=0     yoffset=0     xadvance=19    page=0  chnl=15
char id=25562 x=160   y=250   width=19    height=24    xoffset=0     yoffset=0     xadvance=19    page=0  chnl=15
char id=25563 x=180   y=250   width=19    height=24    xoffset=0     yoffset=0     xadvance=19    page=0  chnl=15
char id=25628 x=200   y=250   width=19    height=24    xoffset=0     yoffset=0     xadvance=19    page=0  chnl=15
char id=25654 x=220   y=250   width=19    height=24    xoffset=0     yoffset=0     xadvance=19    page=0  chnl=15
char id=25688 x=240   y=250   width=19    height=24    xoffset=0     yoffset=0     xadvance=19    page=0  chnl=15
char id=25758 x=300   y=50    width=19    height=24    xoffset=0     yoffset=0     xadvance=19    page=0  chnl=15
char id=25799 x=280   y=250   width=19    height=24    xoffset=0     yoffset=0     xadvance=19    page=0  chnl=15
char id=25802 x=300   y=250   width=19    height=24    xoffset=0     yoffset=0     xadvance=19    page=0  chnl=15
char id=25805 x=320   y=250   width=19    height=24    xoffset=0     yoffset=0     xadvance=19    page=0  chnl=15
char id=25818 x=340   y=250   width=19    height=24    xoffset=0     yoffset=0     xadvance=19    page=0  chnl=15
char id=25836 x=360   y=250   width=19    height=24    xoffset=0     yoffset=0     xadvance=19    page=0  chnl=15
char id=25844 x=380   y=250   width=19    height=24    xoffset=0     yoffset=0     xadvance=19    page=0  chnl=15
char id=25913 x=400   y=250   width=19    height=24    xoffset=0     yoffset=0     xadvance=19    page=0  chnl=15
char id=25918 x=420   y=250   width=19    height=24    xoffset=0     yoffset=0     xadvance=19    page=0  chnl=15
char id=25925 x=440   y=250   width=19    height=24    xoffset=0     yoffset=0     xadvance=19    page=0  chnl=15
char id=25928 x=460   y=250   width=19    height=24    xoffset=0     yoffset=0     xadvance=19    page=0  chnl=15
char id=25943 x=480   y=250   width=19    height=24    xoffset=0     yoffset=0     xadvance=19    page=0  chnl=15
char id=25972 x=0     y=275   width=19    height=24    xoffset=0     yoffset=0     xadvance=19    page=0  chnl=15
char id=25976 x=20    y=275   width=19    height=24    xoffset=0     yoffset=0     xadvance=19    page=0  chnl=15
char id=26032 x=40    y=275   width=19    height=24    xoffset=0     yoffset=0     xadvance=19    page=0  chnl=15
char id=26041 x=60    y=275   width=19    height=24    xoffset=0     yoffset=0     xadvance=19    page=0  chnl=15
char id=26126 x=80    y=275   width=19    height=24    xoffset=0     yoffset=0     xadvance=19    page=0  chnl=15
char id=26131 x=100   y=275   width=19    height=24    xoffset=0     yoffset=0     xadvance=19    page=0  chnl=15
char id=26143 x=120   y=275   width=19    height=24    xoffset=0     yoffset=0     xadvance=19    page=0  chnl=15
char id=26159 x=140   y=275   width=19    height=24    xoffset=0     yoffset=0     xadvance=19    page=0  chnl=15
char id=26178 x=160   y=275   width=19    height=24    xoffset=0     yoffset=0     xadvance=19    page=0  chnl=15
char id=26222 x=180   y=275   width=19    height=24    xoffset=0     yoffset=0     xadvance=19    page=0  chnl=15
char id=26223 x=200   y=275   width=19    height=24    xoffset=0     yoffset=0     xadvance=19    page=0  chnl=15
char id=26283 x=220   y=275   width=19    height=24    xoffset=0     yoffset=0     xadvance=19    page=0  chnl=15
char id=26356 x=240   y=275   width=19    height=24    xoffset=0     yoffset=0     xadvance=19    page=0  chnl=15
char id=26368 x=260   y=275   width=19    height=24    xoffset=0     yoffset=0     xadvance=19    page=0  chnl=15
char id=26371 x=280   y=275   width=19    height=24    xoffset=0     yoffset=0     xadvance=19    page=0  chnl=15
char id=26377 x=300   y=275   width=19    height=24    xoffset=0     yoffset=0     xadvance=19    page=0  chnl=15
char id=26410 x=320   y=275   width=19    height=24    xoffset=0     yoffset=0     xadvance=19    page=0  chnl=15
char id=26412 x=340   y=275   width=19    height=24    xoffset=0     yoffset=0     xadvance=19    page=0  chnl=15
char id=26463 x=360   y=275   width=19    height=24    xoffset=0     yoffset=0     xadvance=19    page=0  chnl=15
char id=26464 x=380   y=275   width=19    height=24    xoffset=0     yoffset=0     xadvance=19    page=0  chnl=15
char id=26479 x=400   y=275   width=19    height=24    xoffset=0     yoffset=0     xadvance=19    page=0  chnl=15
char id=26512 x=420   y=275   width=19    height=24    xoffset=0     yoffset=0     xadvance=19    page=0  chnl=15
char id=26524 x=440   y=275   width=19    height=24    xoffset=0     yoffset=0     xadvance=19    page=0  chnl=15
char id=26597 x=460   y=275   width=19    height=24    xoffset=0     yoffset=0     xadvance=19    page=0  chnl=15
char id=26631 x=480   y=275   width=19    height=24    xoffset=0     yoffset=0     xadvance=19    page=0  chnl=15
char id=26684 x=0     y=300   width=19    height=24    xoffset=0     yoffset=0     xadvance=19    page=0  chnl=15
char id=26694 x=20    y=300   width=19    height=24    xoffset=0     yoffset=0     xadvance=19    page=0  chnl=15
char id=26781 x=40    y=300   width=19    height=24    xoffset=0     yoffset=0     xadvance=19    page=0  chnl=15
char id=26820 x=60    y=300   width=19    height=24    xoffset=0     yoffset=0     xadvance=19    page=0  chnl=15
char id=26834 x=80    y=300   width=19    height=24    xoffset=0     yoffset=0     xadvance=19    page=0  chnl=15
char id=27036 x=100   y=300   width=19    height=24    xoffset=0     yoffset=0     xadvance=19    page=0  chnl=15
char id=27138 x=120   y=300   width=19    height=24    xoffset=0     yoffset=0     xadvance=19    page=0  chnl=15
char id=27161 x=140   y=300   width=19    height=24    xoffset=0     yoffset=0     xadvance=19    page=0  chnl=15
char id=27169 x=160   y=300   width=19    height=24    xoffset=0     yoffset=0     xadvance=19    page=0  chnl=15
char id=27231 x=180   y=300   width=19    height=24    xoffset=0     yoffset=0     xadvance=19    page=0  chnl=15
char id=27402 x=200   y=300   width=19    height=24    xoffset=0     yoffset=0     xadvance=19    page=0  chnl=15
char id=27425 x=220   y=300   width=19    height=24    xoffset=0     yoffset=0     xadvance=19    page=0  chnl=15
char id=27454 x=240   y=300   width=19    height=24    xoffset=0     yoffset=0     xadvance=19    page=0  chnl=15
char id=27489 x=260   y=300   width=19    height=24    xoffset=0     yoffset=0     xadvance=19    page=0  chnl=15
char id=27491 x=280   y=300   width=19    height=24    xoffset=0     yoffset=0     xadvance=19    page=0  chnl=15
char id=27493 x=300   y=300   width=19    height=24    xoffset=0     yoffset=0     xadvance=19    page=0  chnl=15
char id=27511 x=320   y=300   width=19    height=24    xoffset=0     yoffset=0     xadvance=19    page=0  chnl=15
char id=27530 x=340   y=300   width=19    height=24    xoffset=0     yoffset=0     xadvance=19    page=0  chnl=15
char id=27573 x=360   y=300   width=19    height=24    xoffset=0     yoffset=0     xadvance=19    page=0  chnl=15
char id=27599 x=380   y=300   width=19    height=24    xoffset=0     yoffset=0     xadvance=19    page=0  chnl=15
char id=27604 x=400   y=300   width=19    height=24    xoffset=0     yoffset=0     xadvance=19    page=0  chnl=15
char id=27700 x=420   y=300   width=19    height=24    xoffset=0     yoffset=0     xadvance=19    page=0  chnl=15
char id=27794 x=440   y=300   width=19    height=24    xoffset=0     yoffset=0     xadvance=19    page=0  chnl=15
char id=27798 x=460   y=300   width=19    height=24    xoffset=0     yoffset=0     xadvance=19    page=0  chnl=15
char id=27861 x=480   y=300   width=19    height=24    xoffset=0     yoffset=0     xadvance=19    page=0  chnl=15
char id=28145 x=0     y=325   width=19    height=24    xoffset=0     yoffset=0     xadvance=19    page=0  chnl=15
char id=28204 x=20    y=325   width=19    height=24    xoffset=0     yoffset=0     xadvance=19    page=0  chnl=15
char id=28304 x=40    y=325   width=19    height=24    xoffset=0     yoffset=0     xadvance=19    page=0  chnl=15
char id=28310 x=60    y=325   width=19    height=24    xoffset=0     yoffset=0     xadvance=19    page=0  chnl=15
char id=28415 x=80    y=325   width=19    height=24    xoffset=0     yoffset=0     xadvance=19    page=0  chnl=15
char id=28670 x=100   y=325   width=19    height=24    xoffset=0     yoffset=0     xadvance=19    page=0  chnl=15
char id=28858 x=120   y=325   width=19    height=24    xoffset=0     yoffset=0     xadvance=19    page=0  chnl=15
char id=28961 x=140   y=325   width=19    height=24    xoffset=0     yoffset=0     xadvance=19    page=0  chnl=15
char id=29017 x=160   y=325   width=19    height=24    xoffset=0     yoffset=0     xadvance=19    page=0  chnl=15
char id=29190 x=180   y=325   width=19    height=24    xoffset=0     yoffset=0     xadvance=19    page=0  chnl=15
char id=29234 x=200   y=325   width=19    height=24    xoffset=0     yoffset=0     xadvance=19    page=0  chnl=15
char id=29256 x=220   y=325   width=19    height=24    xoffset=0     yoffset=0     xadvance=19    page=0  chnl=15
char id=29289 x=240   y=325   width=19    height=24    xoffset=0     yoffset=0     xadvance=19    page=0  chnl=15
char id=29305 x=260   y=325   width=19    height=24    xoffset=0     yoffset=0     xadvance=19    page=0  chnl=15
char id=29376 x=280   y=325   width=19    height=24    xoffset=0     yoffset=0     xadvance=19    page=0  chnl=15
char id=29518 x=300   y=325   width=19    height=24    xoffset=0     yoffset=0     xadvance=19    page=0  chnl=15
char id=29554 x=320   y=325   width=19    height=24    xoffset=0     yoffset=0     xadvance=19    page=0  chnl=15
char id=29575 x=340   y=325   width=19    height=24    xoffset=0     yoffset=0     xadvance=19    page=0  chnl=15
char id=29609 x=360   y=325   width=19    height=24    xoffset=0     yoffset=0     xadvance=19    page=0  chnl=15
char id=29694 x=380   y=325   width=19    height=24    xoffset=0     yoffset=0     xadvance=19    page=0  chnl=15
char id=29702 x=400   y=325   width=19    height=24    xoffset=0     yoffset=0     xadvance=19    page=0  chnl=15
char id=29983 x=420   y=325   width=19    height=24    xoffset=0     yoffset=0     xadvance=19    page=0  chnl=15
char id=29987 x=440   y=325   width=19    height=24    xoffset=0     yoffset=0     xadvance=19    page=0  chnl=15
char id=29992 x=460   y=325   width=19    height=24    xoffset=0     yoffset=0     xadvance=19    page=0  chnl=15
char id=30050 x=480   y=325   width=19    height=24    xoffset=0     yoffset=0     xadvance=19    page=0  chnl=15
char id=30059 x=0     y=350   width=19    height=24    xoffset=0     yoffset=0     xadvance=19    page=0  chnl=15
char id=30070 x=20    y=350   width=19    height=24    xoffset=0     yoffset=0     xadvance=19    page=0  chnl=15
char id=30165 x=40    y=350   width=19    height=24    xoffset=0     yoffset=0     xadvance=19    page=0  chnl=15
char id=30331 x=60    y=350   width=19    height=24    xoffset=0     yoffset=0     xadvance=19    page=0  chnl=15
char id=30332 x=80    y=350   width=19    height=24    xoffset=0     yoffset=0     xadvance=19    page=0  chnl=15
char id=30333 x=100   y=350   width=19    height=24    xoffset=0     yoffset=0     xadvance=19    page=0  chnl=15
char id=30340 x=120   y=350   width=19    height=24    xoffset=0     yoffset=0     xadvance=19    page=0  chnl=15
char id=30446 x=140   y=350   width=19    height=24    xoffset=0     yoffset=0     xadvance=19    page=0  chnl=15
char id=30452 x=160   y=350   width=19    height=24    xoffset=0     yoffset=0     xadvance=19    page=0  chnl=15
char id=30456 x=180   y=350   width=19    height=24    xoffset=0     yoffset=0     xadvance=19    page=0  chnl=15
char id=30475 x=200   y=350   width=19    height=24    xoffset=0     yoffset=0     xadvance=19    page=0  chnl=15
char id=30495 x=220   y=350   width=19    height=24    xoffset=0     yoffset=0     xadvance=19    page=0  chnl=15
char id=30906 x=240   y=350   width=19    height=24    xoffset=0     yoffset=0     xadvance=19    page=0  chnl=15
char id=31034 x=260   y=350   width=19    height=24    xoffset=0     yoffset=0     xadvance=19    page=0  chnl=15
char id=31069 x=280   y=350   width=19    height=24    xoffset=0     yoffset=0     xadvance=19    page=0  chnl=15
char id=31070 x=300   y=350   width=19    height=24    xoffset=0     yoffset=0     xadvance=19    page=0  chnl=15
char id=31168 x=320   y=350   width=19    height=24    xoffset=0     yoffset=0     xadvance=19    page=0  chnl=15
char id=31192 x=340   y=350   width=19    height=24    xoffset=0     yoffset=0     xadvance=19    page=0  chnl=15
char id=31227 x=360   y=350   width=19    height=24    xoffset=0     yoffset=0     xadvance=19    page=0  chnl=15
char id=31243 x=380   y=350   width=19    height=24    xoffset=0     yoffset=0     xadvance=19    page=0  chnl=15
char id=31245 x=400   y=350   width=19    height=24    xoffset=0     yoffset=0     xadvance=19    page=0  chnl=15
char id=31278 x=420   y=350   width=19    height=24    xoffset=0     yoffset=0     xadvance=19    page=0  chnl=15
char id=31354 x=440   y=350   width=19    height=24    xoffset=0     yoffset=0     xadvance=19    page=0  chnl=15
char id=31435 x=460   y=350   width=19    height=24    xoffset=0     yoffset=0     xadvance=19    page=0  chnl=15
char id=31478 x=480   y=350   width=19    height=24    xoffset=0     yoffset=0     xadvance=19    page=0  chnl=15
char id=31481 x=0     y=375   width=19    height=24    xoffset=0     yoffset=0     xadvance=19    page=0  chnl=15
char id=31532 x=20    y=375   width=19    height=24    xoffset=0     yoffset=0     xadvance=19    page=0  chnl=15
char id=31561 x=40    y=375   width=19    height=24    xoffset=0     yoffset=0     xadvance=19    page=0  chnl=15
char id=31661 x=60    y=375   width=19    height=24    xoffset=0     yoffset=0     xadvance=19    page=0  chnl=15
char id=31684 x=80    y=375   width=19    height=24    xoffset=0     yoffset=0     xadvance=19    page=0  chnl=15
char id=31777 x=100   y=375   width=19    height=24    xoffset=0     yoffset=0     xadvance=19    page=0  chnl=15
char id=31890 x=120   y=375   width=19    height=24    xoffset=0     yoffset=0     xadvance=19    page=0  chnl=15
char id=32011 x=140   y=375   width=19    height=24    xoffset=0     yoffset=0     xadvance=19    page=0  chnl=15
char id=32026 x=160   y=375   width=19    height=24    xoffset=0     yoffset=0     xadvance=19    page=0  chnl=15
char id=32034 x=180   y=375   width=19    height=24    xoffset=0     yoffset=0     xadvance=19    page=0  chnl=15
char id=32057 x=200   y=375   width=19    height=24    xoffset=0     yoffset=0     xadvance=19    page=0  chnl=15
char id=32066 x=220   y=375   width=19    height=24    xoffset=0     yoffset=0     xadvance=19    page=0  chnl=15
char id=32080 x=240   y=375   width=19    height=24    xoffset=0     yoffset=0     xadvance=19    page=0  chnl=15
char id=32085 x=260   y=375   width=19    height=24    xoffset=0     yoffset=0     xadvance=19    page=0  chnl=15
char id=32097 x=280   y=375   width=19    height=24    xoffset=0     yoffset=0     xadvance=19    page=0  chnl=15
char id=32156 x=300   y=375   width=19    height=24    xoffset=0     yoffset=0     xadvance=19    page=0  chnl=15
char id=32178 x=320   y=375   width=19    height=24    xoffset=0     yoffset=0     xadvance=19    page=0  chnl=15
char id=32218 x=340   y=375   width=19    height=24    xoffset=0     yoffset=0     xadvance=19    page=0  chnl=15
char id=32232 x=360   y=375   width=19    height=24    xoffset=0     yoffset=0     xadvance=19    page=0  chnl=15
char id=32244 x=380   y=375   width=19    height=24    xoffset=0     yoffset=0     xadvance=19    page=0  chnl=15
char id=32350 x=400   y=375   width=19    height=24    xoffset=0     yoffset=0     xadvance=19    page=0  chnl=15
char id=32380 x=420   y=375   width=19    height=24    xoffset=0     yoffset=0     xadvance=19    page=0  chnl=15
char id=32396 x=440   y=375   width=19    height=24    xoffset=0     yoffset=0     xadvance=19    page=0  chnl=15
char id=32423 x=460   y=375   width=19    height=24    xoffset=0     yoffset=0     xadvance=19    page=0  chnl=15
char id=32622 x=480   y=375   width=19    height=24    xoffset=0     yoffset=0     xadvance=19    page=0  chnl=15
char id=32722 x=0     y=400   width=19    height=24    xoffset=0     yoffset=0     xadvance=19    page=0  chnl=15
char id=32763 x=20    y=400   width=19    height=24    xoffset=0     yoffset=0     xadvance=19    page=0  chnl=15
char id=32771 x=40    y=400   width=19    height=24    xoffset=0     yoffset=0     xadvance=19    page=0  chnl=15
char id=32879 x=60    y=400   width=19    height=24    xoffset=0     yoffset=0     xadvance=19    page=0  chnl=15
char id=32882 x=80    y=400   width=19    height=24    xoffset=0     yoffset=0     xadvance=19    page=0  chnl=15
char id=32972 x=100   y=400   width=19    height=24    xoffset=0     yoffset=0     xadvance=19    page=0  chnl=15
char id=32974 x=120   y=400   width=19    height=24    xoffset=0     yoffset=0     xadvance=19    page=0  chnl=15
char id=33126 x=140   y=400   width=19    height=24    xoffset=0     yoffset=0     xadvance=19    page=0  chnl=15
char id=33258 x=160   y=400   width=19    height=24    xoffset=0     yoffset=0     xadvance=19    page=0  chnl=15
char id=33287 x=180   y=400   width=19    height=24    xoffset=0     yoffset=0     xadvance=19    page=0  chnl=15
char id=33324 x=200   y=400   width=19    height=24    xoffset=0     yoffset=0     xadvance=19    page=0  chnl=15
char id=33394 x=220   y=400   width=19    height=24    xoffset=0     yoffset=0     xadvance=19    page=0  chnl=15
char id=33756 x=240   y=400   width=19    height=24    xoffset=0     yoffset=0     xadvance=19    page=0  chnl=15
char id=33995 x=260   y=400   width=19    height=24    xoffset=0     yoffset=0     xadvance=19    page=0  chnl=15
char id=34214 x=280   y=400   width=19    height=24    xoffset=0     yoffset=0     xadvance=19    page=0  chnl=15
char id=34255 x=300   y=400   width=19    height=24    xoffset=0     yoffset=0     xadvance=19    page=0  chnl=15
char id=34892 x=320   y=400   width=19    height=24    xoffset=0     yoffset=0     xadvance=19    page=0  chnl=15
char id=34903 x=340   y=400   width=19    height=24    xoffset=0     yoffset=0     xadvance=19    page=0  chnl=15
char id=34920 x=360   y=400   width=19    height=24    xoffset=0     yoffset=0     xadvance=19    page=0  chnl=15
char id=34987 x=380   y=400   width=19    height=24    xoffset=0     yoffset=0     xadvance=19    page=0  chnl=15
char id=35037 x=400   y=400   width=19    height=24    xoffset=0     yoffset=0     xadvance=19    page=0  chnl=15
char id=35201 x=420   y=400   width=19    height=24    xoffset=0     yoffset=0     xadvance=19    page=0  chnl=15
char id=35206 x=440   y=400   width=19    height=24    xoffset=0     yoffset=0     xadvance=19    page=0  chnl=15
char id=35222 x=460   y=400   width=19    height=24    xoffset=0     yoffset=0     xadvance=19    page=0  chnl=15
char id=35261 x=480   y=400   width=19    height=24    xoffset=0     yoffset=0     xadvance=19    page=0  chnl=15
char id=35264 x=0     y=425   width=19    height=24    xoffset=0     yoffset=0     xadvance=19    page=0  chnl=15
char id=35299 x=20    y=425   width=19    height=24    xoffset=0     yoffset=0     xadvance=19    page=0  chnl=15
char id=35328 x=40    y=425   width=19    height=24    xoffset=0     yoffset=0     xadvance=19    page=0  chnl=15
char id=35352 x=60    y=425   width=19    height=24    xoffset=0     yoffset=0     xadvance=19    page=0  chnl=15
char id=35373 x=80    y=425   width=19    height=24    xoffset=0     yoffset=0     xadvance=19    page=0  chnl=15
char id=35413 x=100   y=425   width=19    height=24    xoffset=0     yoffset=0     xadvance=19    page=0  chnl=15
char id=35430 x=120   y=425   width=19    height=24    xoffset=0     yoffset=0     xadvance=19    page=0  chnl=15
char id=35469 x=140   y=425   width=19    height=24    xoffset=0     yoffset=0     xadvance=19    page=0  chnl=15
char id=35486 x=160   y=425   width=19    height=24    xoffset=0     yoffset=0     xadvance=19    page=0  chnl=15
char id=35492 x=180   y=425   width=19    height=24    xoffset=0     yoffset=0     xadvance=19    page=0  chnl=15
char id=35519 x=200   y=425   width=19    height=24    xoffset=0     yoffset=0     xadvance=19    page=0  chnl=15
char id=35531 x=220   y=425   width=19    height=24    xoffset=0     yoffset=0     xadvance=19    page=0  chnl=15
char id=35613 x=240   y=425   width=19    height=24    xoffset=0     yoffset=0     xadvance=19    page=0  chnl=15
char id=35672 x=260   y=425   width=19    height=24    xoffset=0     yoffset=0     xadvance=19    page=0  chnl=15
char id=35686 x=280   y=425   width=19    height=24    xoffset=0     yoffset=0     xadvance=19    page=0  chnl=15
char id=35709 x=300   y=425   width=19    height=24    xoffset=0     yoffset=0     xadvance=19    page=0  chnl=15
char id=36023 x=320   y=425   width=19    height=24    xoffset=0     yoffset=0     xadvance=19    page=0  chnl=15
char id=36092 x=340   y=425   width=19    height=24    xoffset=0     yoffset=0     xadvance=19    page=0  chnl=15
char id=36093 x=360   y=425   width=19    height=24    xoffset=0     yoffset=0     xadvance=19    page=0  chnl=15
char id=36141 x=380   y=425   width=19    height=24    xoffset=0     yoffset=0     xadvance=19    page=0  chnl=15
char id=36154 x=400   y=425   width=19    height=24    xoffset=0     yoffset=0     xadvance=19    page=0  chnl=15
char id=36187 x=64    y=0     width=19    height=24    xoffset=0     yoffset=0     xadvance=19    page=0  chnl=15
char id=36259 x=84    y=0     width=19    height=24    xoffset=0     yoffset=0     xadvance=19    page=0  chnl=15
char id=36305 x=104   y=0     width=19    height=24    xoffset=0     yoffset=0     xadvance=19    page=0  chnl=15
char id=36554 x=124   y=0     width=19    height=24    xoffset=0     yoffset=0     xadvance=19    page=0  chnl=15
char id=36557 x=144   y=0     width=19    height=24    xoffset=0     yoffset=0     xadvance=19    page=0  chnl=15
char id=36617 x=164   y=0     width=19    height=24    xoffset=0     yoffset=0     xadvance=19    page=0  chnl=15
char id=36635 x=184   y=0     width=19    height=24    xoffset=0     yoffset=0     xadvance=19    page=0  chnl=15
char id=36650 x=204   y=0     width=19    height=24    xoffset=0     yoffset=0     xadvance=19    page=0  chnl=15
char id=36655 x=224   y=0     width=19    height=24    xoffset=0     yoffset=0     xadvance=19    page=0  chnl=15
char id=36664 x=244   y=0     width=19    height=24    xoffset=0     yoffset=0     xadvance=19    page=0  chnl=15
char id=36681 x=264   y=0     width=19    height=24    xoffset=0     yoffset=0     xadvance=19    page=0  chnl=15
char id=36776 x=284   y=0     width=19    height=24    xoffset=0     yoffset=0     xadvance=19    page=0  chnl=15
char id=36817 x=304   y=0     width=19    height=24    xoffset=0     yoffset=0     xadvance=19    page=0  chnl=15
char id=36820 x=324   y=0     width=19    height=24    xoffset=0     yoffset=0     xadvance=19    page=0  chnl=15
char id=36861 x=260   y=250   width=19    height=24    xoffset=0     yoffset=0     xadvance=19    page=0  chnl=15
char id=36864 x=344   y=0     width=19    height=24    xoffset=0     yoffset=0     xadvance=19    page=0  chnl=15
char id=36879 x=364   y=0     width=19    height=24    xoffset=0     yoffset=0     xadvance=19    page=0  chnl=15
char id=36890 x=384   y=0     width=19    height=24    xoffset=0     yoffset=0     xadvance=19    page=0  chnl=15
char id=36895 x=404   y=0     width=19    height=24    xoffset=0     yoffset=0     xadvance=19    page=0  chnl=15
char id=36899 x=424   y=0     width=19    height=24    xoffset=0     yoffset=0     xadvance=19    page=0  chnl=15
char id=36914 x=444   y=0     width=19    height=24    xoffset=0     yoffset=0     xadvance=19    page=0  chnl=15
char id=36938 x=464   y=0     width=19    height=24    xoffset=0     yoffset=0     xadvance=19    page=0  chnl=15
char id=36939 x=484   y=0     width=19    height=24    xoffset=0     yoffset=0     xadvance=19    page=0  chnl=15
char id=36942 x=0     y=25    width=19    height=24    xoffset=0     yoffset=0     xadvance=19    page=0  chnl=15
char id=36947 x=20    y=25    width=19    height=24    xoffset=0     yoffset=0     xadvance=19    page=0  chnl=15
char id=36953 x=40    y=25    width=19    height=24    xoffset=0     yoffset=0     xadvance=19    page=0  chnl=15
char id=36960 x=60    y=25    width=19    height=24    xoffset=0     yoffset=0     xadvance=19    page=0  chnl=15
char id=36984 x=80    y=25    width=19    height=24    xoffset=0     yoffset=0     xadvance=19    page=0  chnl=15
char id=36996 x=100   y=25    width=19    height=24    xoffset=0     yoffset=0     xadvance=19    page=0  chnl=15
char id=37096 x=120   y=25    width=19    height=24    xoffset=0     yoffset=0     xadvance=19    page=0  chnl=15
char id=37325 x=140   y=25    width=19    height=24    xoffset=0     yoffset=0     xadvance=19    page=0  chnl=15
char id=37327 x=160   y=25    width=19    height=24    xoffset=0     yoffset=0     xadvance=19    page=0  chnl=15
char id=37329 x=180   y=25    width=19    height=24    xoffset=0     yoffset=0     xadvance=19    page=0  chnl=15
char id=37457 x=200   y=25    width=19    height=24    xoffset=0     yoffset=0     xadvance=19    page=0  chnl=15
char id=37504 x=220   y=25    width=19    height=24    xoffset=0     yoffset=0     xadvance=19    page=0  chnl=15
char id=37509 x=240   y=25    width=19    height=24    xoffset=0     yoffset=0     xadvance=19    page=0  chnl=15
char id=37636 x=280   y=25    width=19    height=24    xoffset=0     yoffset=0     xadvance=19    page=0  chnl=15
char id=37670 x=300   y=25    width=19    height=24    xoffset=0     yoffset=0     xadvance=19    page=0  chnl=15
char id=37679 x=320   y=25    width=19    height=24    xoffset=0     yoffset=0     xadvance=19    page=0  chnl=15
char id=37749 x=340   y=25    width=19    height=24    xoffset=0     yoffset=0     xadvance=19    page=0  chnl=15
char id=37782 x=360   y=25    width=19    height=24    xoffset=0     yoffset=0     xadvance=19    page=0  chnl=15
char id=37857 x=380   y=25    width=19    height=24    xoffset=0     yoffset=0     xadvance=19    page=0  chnl=15
char id=37912 x=400   y=25    width=19    height=24    xoffset=0     yoffset=0     xadvance=19    page=0  chnl=15
char id=38182 x=420   y=25    width=19    height=24    xoffset=0     yoffset=0     xadvance=19    page=0  chnl=15
char id=38263 x=440   y=25    width=19    height=24    xoffset=0     yoffset=0     xadvance=19    page=0  chnl=15
char id=38275 x=460   y=25    width=19    height=24    xoffset=0     yoffset=0     xadvance=19    page=0  chnl=15
char id=38281 x=480   y=25    width=19    height=24    xoffset=0     yoffset=0     xadvance=19    page=0  chnl=15
char id=38283 x=0     y=50    width=19    height=24    xoffset=0     yoffset=0     xadvance=19    page=0  chnl=15
char id=38291 x=20    y=50    width=19    height=24    xoffset=0     yoffset=0     xadvance=19    page=0  chnl=15
char id=38364 x=40    y=50    width=19    height=24    xoffset=0     yoffset=0     xadvance=19    page=0  chnl=15
char id=38477 x=60    y=50    width=19    height=24    xoffset=0     yoffset=0     xadvance=19    page=0  chnl=15
char id=38500 x=80    y=50    width=19    height=24    xoffset=0     yoffset=0     xadvance=19    page=0  chnl=15
char id=38556 x=100   y=50    width=19    height=24    xoffset=0     yoffset=0     xadvance=19    page=0  chnl=15
char id=38568 x=120   y=50    width=19    height=24    xoffset=0     yoffset=0     xadvance=19    page=0  chnl=15
char id=38570 x=140   y=50    width=19    height=24    xoffset=0     yoffset=0     xadvance=19    page=0  chnl=15
char id=38577 x=160   y=50    width=19    height=24    xoffset=0     yoffset=0     xadvance=19    page=0  chnl=15
char id=38627 x=180   y=50    width=19    height=24    xoffset=0     yoffset=0     xadvance=19    page=0  chnl=15
char id=38651 x=200   y=50    width=19    height=24    xoffset=0     yoffset=0     xadvance=19    page=0  chnl=15
char id=38656 x=220   y=50    width=19    height=24    xoffset=0     yoffset=0     xadvance=19    page=0  chnl=15
char id=38695 x=240   y=50    width=19    height=24    xoffset=0     yoffset=0     xadvance=19    page=0  chnl=15
char id=38738 x=260   y=50    width=19    height=24    xoffset=0     yoffset=0     xadvance=19    page=0  chnl=15
char id=38750 x=280   y=50    width=19    height=24    xoffset=0     yoffset=0     xadvance=19    page=0  chnl=15
char id=38754 x=320   y=50    width=19    height=24    xoffset=0     yoffset=0     xadvance=19    page=0  chnl=15
char id=38899 x=340   y=50    width=19    height=24    xoffset=0     yoffset=0     xadvance=19    page=0  chnl=15
char id=38917 x=360   y=50    width=19    height=24    xoffset=0     yoffset=0     xadvance=19    page=0  chnl=15
char id=38957 x=380   y=50    width=19    height=24    xoffset=0     yoffset=0     xadvance=19    page=0  chnl=15
char id=38971 x=400   y=50    width=19    height=24    xoffset=0     yoffset=0     xadvance=19    page=0  chnl=15
char id=38988 x=420   y=50    width=19    height=24    xoffset=0     yoffset=0     xadvance=19    page=0  chnl=15
char id=38991 x=440   y=50    width=19    height=24    xoffset=0     yoffset=0     xadvance=19    page=0  chnl=15
char id=39006 x=460   y=50    width=19    height=24    xoffset=0     yoffset=0     xadvance=19    page=0  chnl=15
char id=39023 x=480   y=50    width=19    height=24    xoffset=0     yoffset=0     xadvance=19    page=0  chnl=15
char id=39208 x=0     y=75    width=19    height=24    xoffset=0     yoffset=0     xadvance=19    page=0  chnl=15
char id=39340 x=20    y=75    width=19    height=24    xoffset=0     yoffset=0     xadvance=19    page=0  chnl=15
char id=39493 x=40    y=75    width=19    height=24    xoffset=0     yoffset=0     xadvance=19    page=0  chnl=15
char id=39511 x=60    y=75    width=19    height=24    xoffset=0     yoffset=0     xadvance=19    page=0  chnl=15
char id=39636 x=80    y=75    width=19    height=24    xoffset=0     yoffset=0     xadvance=19    page=0  chnl=15
char id=39640 x=100   y=75    width=19    height=24    xoffset=0     yoffset=0     xadvance=19    page=0  chnl=15
char id=40643 x=120   y=75    width=19    height=24    xoffset=0     yoffset=0     xadvance=19    page=0  chnl=15
char id=40664 x=140   y=75    width=19    height=24    xoffset=0     yoffset=0     xadvance=19    page=0  chnl=15
char id=40670 x=100   y=125   width=19    height=24    xoffset=0     yoffset=0     xadvance=19    page=0  chnl=15
kernings count=232
kerning first=8217 second=8217 amount=-2  
kerning first=8217 second=115 amount=-1  
kerning first=39  second=114 amount=-1  
kerning first=39  second=115 amount=-1  
kerning first=40  second=106 amount=2   
kerning first=8217 second=113 amount=-1  
kerning first=8217 second=111 amount=-2  
kerning first=8217 second=103 amount=-2  
kerning first=8217 second=101 amount=-2  
kerning first=8217 second=100 amount=-2  
kerning first=8217 second=99  amount=-2  
kerning first=8217 second=97  amount=-1  
kerning first=8217 second=84  amount=1   
kerning first=8217 second=74  amount=-2  
kerning first=8217 second=65  amount=-2  
kerning first=44  second=8216 amount=-2  
kerning first=44  second=8217 amount=-2  
kerning first=8217 second=46  amount=-1  
kerning first=8217 second=44  amount=-1  
kerning first=46  second=8216 amount=-2  
kerning first=46  second=8217 amount=-2  
kerning first=8216 second=8216 amount=-2  
kerning first=65  second=44  amount=1   
kerning first=65  second=59  amount=1   
kerning first=8216 second=115 amount=-1  
kerning first=8216 second=111 amount=-1  
kerning first=65  second=74  amount=1   
kerning first=8216 second=103 amount=-1  
kerning first=65  second=84  amount=-1  
kerning first=8216 second=101 amount=-1  
kerning first=65  second=86  amount=-1  
kerning first=65  second=87  amount=-1  
kerning first=65  second=89  amount=-2  
kerning first=65  second=90  amount=1   
kerning first=8216 second=100 amount=-2  
kerning first=8216 second=99  amount=-1  
kerning first=8216 second=84  amount=1   
kerning first=8216 second=74  amount=-1  
kerning first=8216 second=67  amount=-1  
kerning first=8216 second=65  amount=-2  
kerning first=65  second=8216 amount=-2  
kerning first=65  second=8217 amount=-2  
kerning first=66  second=84  amount=-1  
kerning first=66  second=89  amount=-1  
kerning first=121 second=63  amount=-1  
kerning first=67  second=67  amount=-1  
kerning first=67  second=71  amount=-1  
kerning first=121 second=46  amount=-1  
kerning first=67  second=81  amount=-1  
kerning first=68  second=44  amount=-1  
kerning first=68  second=46  amount=-1  
kerning first=121 second=44  amount=-1  
kerning first=68  second=84  amount=-1  
kerning first=68  second=88  amount=-1  
kerning first=119 second=46  amount=-1  
kerning first=119 second=44  amount=-1  
kerning first=118 second=46  amount=-1  
kerning first=69  second=74  amount=1   
kerning first=118 second=44  amount=-1  
kerning first=117 second=39  amount=-1  
kerning first=116 second=63  amount=-1  
kerning first=70  second=44  amount=-2  
kerning first=70  second=46  amount=-2  
kerning first=70  second=65  amount=-1  
kerning first=70  second=74  amount=-1  
kerning first=116 second=45  amount=-1  
kerning first=114 second=8217 amount=1   
kerning first=70  second=97  amount=-1  
kerning first=114 second=8216 amount=2   
kerning first=114 second=121 amount=1   
kerning first=114 second=120 amount=1   
kerning first=114 second=119 amount=1   
kerning first=114 second=118 amount=1   
kerning first=74  second=44  amount=-1  
kerning first=74  second=46  amount=-1  
kerning first=114 second=116 amount=1   
kerning first=74  second=74  amount=-1  
kerning first=114 second=59  amount=1   
kerning first=114 second=58  amount=1   
kerning first=114 second=46  amount=-2  
kerning first=114 second=45  amount=-1  
kerning first=114 second=44  amount=-2  
kerning first=113 second=106 amount=1   
kerning first=75  second=67  amount=-1  
kerning first=75  second=71  amount=-1  
kerning first=75  second=74  amount=1   
kerning first=75  second=79  amount=-1  
kerning first=75  second=81  amount=-1  
kerning first=112 second=8217 amount=-1  
kerning first=112 second=8216 amount=-1  
kerning first=111 second=8217 amount=-1  
kerning first=111 second=8216 amount=-1  
kerning first=111 second=39  amount=-1  
kerning first=110 second=39  amount=-1  
kerning first=107 second=59  amount=1   
kerning first=107 second=58  amount=1   
kerning first=107 second=46  amount=1   
kerning first=75  second=118 amount=-1  
kerning first=75  second=119 amount=-1  
kerning first=75  second=121 amount=-1  
kerning first=107 second=45  amount=-1  
kerning first=107 second=44  amount=1   
kerning first=102 second=8217 amount=1   
kerning first=102 second=8216 amount=1   
kerning first=102 second=93  amount=1   
kerning first=102 second=63  amount=1   
kerning first=102 second=59  amount=1   
kerning first=76  second=63  amount=-1  
kerning first=76  second=65  amount=1   
kerning first=76  second=67  amount=-1  
kerning first=76  second=71  amount=-1  
kerning first=76  second=74  amount=1   
kerning first=76  second=79  amount=-1  
kerning first=76  second=81  amount=-1  
kerning first=76  second=84  amount=-1  
kerning first=102 second=58  amount=1   
kerning first=76  second=86  amount=-1  
kerning first=102 second=46  amount=-1  
kerning first=76  second=89  amount=-1  
kerning first=76  second=90  amount=1   
kerning first=102 second=45  amount=-1  
kerning first=76  second=118 amount=-1  
kerning first=76  second=119 amount=-1  
kerning first=76  second=121 amount=-1  
kerning first=102 second=44  amount=-1  
kerning first=102 second=41  amount=1   
kerning first=76  second=8216 amount=-1  
kerning first=76  second=8217 amount=-1  
kerning first=79  second=44  amount=-1  
kerning first=79  second=46  amount=-1  
kerning first=101 second=39  amount=-1  
kerning first=99  second=89  amount=-1  
kerning first=79  second=84  amount=-1  
kerning first=99  second=84  amount=-1  
kerning first=99  second=74  amount=1   
kerning first=91  second=106 amount=2   
kerning first=90  second=121 amount=-1  
kerning first=80  second=44  amount=-3  
kerning first=80  second=46  amount=-3  
kerning first=80  second=65  amount=-2  
kerning first=90  second=74  amount=1   
kerning first=80  second=74  amount=-1  
kerning first=89  second=117 amount=-1  
kerning first=80  second=88  amount=-1  
kerning first=80  second=97  amount=-1  
kerning first=80  second=99  amount=-1  
kerning first=80  second=100 amount=-1  
kerning first=80  second=101 amount=-1  
kerning first=80  second=103 amount=-1  
kerning first=80  second=111 amount=-1  
kerning first=80  second=113 amount=-1  
kerning first=89  second=115 amount=-1  
kerning first=89  second=114 amount=-1  
kerning first=89  second=113 amount=-2  
kerning first=89  second=112 amount=-1  
kerning first=89  second=111 amount=-2  
kerning first=89  second=110 amount=-1  
kerning first=89  second=109 amount=-1  
kerning first=89  second=103 amount=-2  
kerning first=81  second=44  amount=-1  
kerning first=81  second=46  amount=-1  
kerning first=89  second=101 amount=-2  
kerning first=81  second=84  amount=-1  
kerning first=89  second=100 amount=-2  
kerning first=89  second=99  amount=-2  
kerning first=89  second=97  amount=-2  
kerning first=89  second=74  amount=-1  
kerning first=82  second=59  amount=1   
kerning first=89  second=65  amount=-2  
kerning first=89  second=46  amount=-2  
kerning first=82  second=74  amount=1   
kerning first=89  second=44  amount=-2  
kerning first=88  second=74  amount=1   
kerning first=82  second=84  amount=-1  
kerning first=88  second=59  amount=1   
kerning first=82  second=99  amount=-1  
kerning first=82  second=100 amount=-1  
kerning first=82  second=101 amount=-1  
kerning first=82  second=103 amount=-1  
kerning first=82  second=111 amount=-1  
kerning first=82  second=113 amount=-1  
kerning first=88  second=46  amount=1   
kerning first=88  second=44  amount=1   
kerning first=87  second=97  amount=-1  
kerning first=87  second=65  amount=-1  
kerning first=87  second=46  amount=-1  
kerning first=83  second=116 amount=-1  
kerning first=87  second=44  amount=-1  
kerning first=86  second=117 amount=-1  
kerning first=86  second=115 amount=-1  
kerning first=84  second=44  amount=-1  
kerning first=84  second=46  amount=-2  
kerning first=86  second=114 amount=-1  
kerning first=86  second=113 amount=-1  
kerning first=84  second=65  amount=-2  
kerning first=84  second=67  amount=-1  
kerning first=84  second=71  amount=-1  
kerning first=84  second=74  amount=-1  
kerning first=84  second=79  amount=-1  
kerning first=84  second=81  amount=-1  
kerning first=86  second=112 amount=-1  
kerning first=86  second=111 amount=-1  
kerning first=86  second=110 amount=-1  
kerning first=86  second=109 amount=-1  
kerning first=86  second=103 amount=-1  
kerning first=84  second=97  amount=-2  
kerning first=84  second=99  amount=-2  
kerning first=84  second=100 amount=-2  
kerning first=84  second=101 amount=-2  
kerning first=84  second=102 amount=-1  
kerning first=84  second=103 amount=-2  
kerning first=84  second=109 amount=-2  
kerning first=84  second=110 amount=-2  
kerning first=84  second=111 amount=-2  
kerning first=84  second=112 amount=-2  
kerning first=84  second=113 amount=-2  
kerning first=84  second=114 amount=-2  
kerning first=84  second=115 amount=-2  
kerning first=84  second=117 amount=-2  
kerning first=84  second=118 amount=-1  
kerning first=84  second=119 amount=-1  
kerning first=84  second=120 amount=-2  
kerning first=84  second=121 amount=-1  
kerning first=84  second=122 amount=-1  
kerning first=86  second=101 amount=-1  
kerning first=86  second=100 amount=-1  
kerning first=86  second=99  amount=-1  
kerning first=86  second=97  amount=-1  
kerning first=86  second=74  amount=-1  
kerning first=86  second=65  amount=-1  
kerning first=86  second=46  amount=-2  
kerning first=86  second=44  amount=-2  
